[
  {
    "totalItems": 919,
    "itemCount": 98,
    "itemsPerPage": 195,
    "totalPages": 743,
    "currentPage": 707
  },
  {
    "totalItems": 578,
    "itemCount": 669,
    "itemsPerPage": 502,
    "totalPages": 830,
    "currentPage": 975
  },
  {
    "totalItems": 975,
    "itemCount": 880,
    "itemsPerPage": 597,
    "totalPages": 631,
    "currentPage": 998
  },
  {
    "totalItems": 152,
    "itemCount": 937,
    "itemsPerPage": 378,
    "totalPages": 480,
    "currentPage": 153
  },
  {
    "totalItems": 313,
    "itemCount": 3,
    "itemsPerPage": 502,
    "totalPages": 393,
    "currentPage": 165
  },
  {
    "totalItems": 324,
    "itemCount": 560,
    "itemsPerPage": 63,
    "totalPages": 402,
    "currentPage": 407
  },
  {
    "totalItems": 606,
    "itemCount": 61,
    "itemsPerPage": 792,
    "totalPages": 248,
    "currentPage": 704
  },
  {
    "totalItems": 515,
    "itemCount": 390,
    "itemsPerPage": 324,
    "totalPages": 368,
    "currentPage": 591
  },
  {
    "totalItems": 874,
    "itemCount": 70,
    "itemsPerPage": 12,
    "totalPages": 280,
    "currentPage": 712
  },
  {
    "totalItems": 444,
    "itemCount": 564,
    "itemsPerPage": 800,
    "totalPages": 676,
    "currentPage": 267
  }
]